Calculate the Canadian AQHI from hourly PM2.5, O3, and NO2 concentrations — AQHI • aqhi
…
Environment and Climate Change Canada: https://www.canada.ca/en/environment-climate-change/services/air-quality-health-index/about.html

    Examples

obs <- example_obs[example_obs$site_id == 1, ]

# Calculate the AQHI
obs$date_utc |>
  AQHI(
    pm25_1hr_ugm3 = obs$pm25_1hr,
    o3_1hr_ppb = obs$o3_1hr,
    no2_1hr_ppb = obs$no2_1hr
  )
#> # A tibble: 8,571 × 18
#>    date                pm25_1hr_ugm3 o3_1hr_ppb no2_1hr_ppb pm25_3hr_ugm3
#>    <dttm>                      <dbl>      <dbl>       <dbl>         <dbl>
#>  1 2018-01-01 09:00:00           9.2        0.7        18.1          NA  
#>  2 2018-01-01 10:00:00          12.1        0.3        17.5          NA  
#>  3 2018-01-01 11:00:00          10.7        0.2        17.8          10.7
#>  4 2018-01-01 12:00:00           9.3        0.2        18.1          10.7
#>  5 2018-01-01 13:00:00           8          1.1        16.6           9.3
#>  6 2018-01-01 14:00:00           6.6        1.4        15.6           8  
#>  7 2018-01-01 15:00:00           6          1.9        13.8           6.9
#>  8 2018-01-01 16:00:00           6.1        0.3        16.9           6.2
#>  9 2018-01-01 17:00:00           7.1        1          18.1           6.4
#> 10 2018-01-01 18:00:00           7.9        2.5        16.9           7  
#> # ℹ 8,561 more rows
#> # ℹ 13 more variables: o3_3hr_ppb <dbl>, no2_3hr_ppb <dbl>, level <fct>,
#> #   AQHI <fct>, AQHI_plus <fct>, AQHI_plus_exceeds_AQHI <lgl>,
#> #   AQHI_pm25_ratio <dbl>, AQHI_o3_ratio <dbl>, AQHI_no2_ratio <dbl>,
#> #   colour <chr>, risk <fct>, high_risk_pop_message <chr>,
#> #   general_pop_message <chr>
…
# Calculate just the AQHI+
obs$date_utc |> AQHI(pm25_1hr_ugm3 = obs$pm25_1hr)
#> Warning: No non-missing NO2 / O3 data provided. Returning AQHI+ (PM2.5 only) instead of AQHI.
#> # A tibble: 8,759 × 18
#>    date                pm25_1hr_ugm3 o3_1hr_ppb no2_1hr_ppb pm25_3hr_ugm3
#>    <dttm>                      <dbl>      <dbl>       <dbl>         <dbl>
#>  1 2018-01-01 09:00:00           9.2         NA          NA            NA
#>  2 2018-01-01 10:00:00          12.1         NA          NA            NA
#>  3 2018-01-01 11:00:00          10.7         NA          NA            NA
#>  4 2018-01-01 12:00:00           9.3         NA          NA            NA
#>  5 2018-01-01 13:00:00           8           NA          NA            NA
#>  6 2018-01-01 14:00:00           6.6         NA          NA            NA
#>  7 2018-01-01 15:00:00           6           NA          NA            NA
#>  8 2018-01-01 16:00:00           6.1         NA          NA            NA
#>  9 2018-01-01 17:00:00           7.1         NA          NA            NA
#> 10 2018-01-01 18:00:00           7.9         NA          NA            NA
#> # ℹ 8,749 more rows
#> # ℹ 13 more variables: o3_3hr_ppb <dbl>, no2_3hr_ppb <dbl>, level <fct>,
#> #   AQHI <fct>, AQHI_plus <fct>, AQHI_plus_exceeds_AQHI <lgl>,
#> #   AQHI_pm25_ratio <dbl>, AQHI_o3_ratio <dbl>, AQHI_no2_ratio <dbl>,
#> #   colour <chr>, risk <fct>, high_risk_pop_message <chr>,
#> #   general_pop_message <chr>
obs$date_utc |> AQHI(pm25_1hr_ugm3 = obs$pm25_1hr, quiet = TRUE) # silence warning
#> # A tibble: 8,759 × 18
#>    date                pm25_1hr_ugm3 o3_1hr_ppb no2_1hr_ppb pm25_3hr_ugm3
#>    <dttm>                      <dbl>      <dbl>       <dbl>         <dbl>
#>  1 2018-01-01 09:00:00           9.2         NA          NA            NA
#>  2 2018-01-01 10:00:00          12.1         NA          NA            NA
#>  3 2018-01-01 11:00:00          10.7         NA          NA            NA
#>  4 2018-01-01 12:00:00           9.3         NA          NA            NA
#>  5 2018-01-01 13:00:00           8           NA          NA            NA
#>  6 2018-01-01 14:00:00           6.6         NA          NA            NA
#>  7 2018-01-01 15:00:00           6           NA          NA            NA
#>  8 2018-01-01 16:00:00           6.1         NA          NA            NA
#>  9 2018-01-01 17:00:00           7.1         NA          NA            NA
#> 10 2018-01-01 18:00:00           7.9         NA          NA            NA
#> # ℹ 8,749 more rows
#> # ℹ 13 more variables: o3_3hr_ppb <dbl>, no2_3hr_ppb <dbl>, level <fct>,
#> #   AQHI <fct>, AQHI_plus <fct>, AQHI_plus_exceeds_AQHI <lgl>,
#> #   AQHI_pm25_ratio <dbl>, AQHI_o3_ratio <dbl>, AQHI_no2_ratio <dbl>,
#> #   colour <chr>, risk <fct>, high_risk_pop_message <chr>,
#> #   general_pop_message <chr>

# Return French version
obs$date_utc |>
  AQHI(
    pm25_1hr_ugm3 = obs$pm25_1hr,
    o3_1hr_ppb = obs$o3_1hr,
    no2_1hr_ppb = obs$no2_1hr,
    language = "fr"
  )
#> # A tibble: 8,571 × 18
#>    date                pm25_1hr_ugm3 o3_1hr_ppb no2_1hr_ppb pm25_3hr_ugm3
#>    <dttm>                      <dbl>      <dbl>       <dbl>         <dbl>
#>  1 2018-01-01 09:00:00           9.2        0.7        18.1          NA  
#>  2 2018-01-01 10:00:00          12.1        0.3        17.5          NA  
#>  3 2018-01-01 11:00:00          10.7        0.2        17.8          10.7
#>  4 2018-01-01 12:00:00           9.3        0.2        18.1          10.7
#>  5 2018-01-01 13:00:00           8          1.1        16.6           9.3
#>  6 2018-01-01 14:00:00           6.6        1.4        15.6           8  
#>  7 2018-01-01 15:00:00           6          1.9        13.8           6.9
#>  8 2018-01-01 16:00:00           6.1        0.3        16.9           6.2
#>  9 2018-01-01 17:00:00           7.1        1          18.1           6.4
#> 10 2018-01-01 18:00:00           7.9        2.5        16.9           7  
#> # ℹ 8,561 more rows
#> # ℹ 13 more variables: o3_3hr_ppb <dbl>, no2_3hr_ppb <dbl>, level <fct>,
#> #   AQHI <fct>, AQHI_plus <fct>, AQHI_plus_exceeds_AQHI <lgl>,
#> #   AQHI_pm25_ratio <dbl>, AQHI_o3_ratio <dbl>, AQHI_no2_ratio <dbl>,
#> #   colour <chr>, risk <fct>, high_risk_pop_message <chr>,
#> #   general_pop_message <chr>
obs$date_utc |> AQHI(pm25_1hr_ugm3 = obs$pm25_1hr, language = "fr")
#> Warning: No non-missing NO2 / O3 data provided. Returning AQHI+ (PM2.5 only) instead of AQHI.
#> # A tibble: 8,759 × 18
#>    date                pm25_1hr_ugm3 o3_1hr_ppb no2_1hr_ppb pm25_3hr_ugm3
#>    <dttm>                      <dbl>      <dbl>       <dbl>         <dbl>
#>  1 2018-01-01 09:00:00           9.2         NA          NA            NA
#>  2 2018-01-01 10:00:00          12.1         NA          NA            NA
#>  3 2018-01-01 11:00:00          10.7         NA          NA            NA
#>  4 2018-01-01 12:00:00           9.3         NA          NA            NA
#>  5 2018-01-01 13:00:00           8           NA          NA            NA
#>  6 2018-01-01 14:00:00           6.6         NA          NA            NA
#>  7 2018-01-01 15:00:00           6           NA          NA            NA
#>  8 2018-01-01 16:00:00           6.1         NA          NA            NA
#>  9 2018-01-01 17:00:00           7.1         NA          NA            NA
#> 10 2018-01-01 18:00:00           7.9         NA          NA            NA
#> # ℹ 8,749 more rows
#> # ℹ 13 more variables: o3_3hr_ppb <dbl>, no2_3hr_ppb <dbl>, level <fct>,
#> #   AQHI <fct>, AQHI_plus <fct>, AQHI_plus_exceeds_AQHI <lgl>,
#> #   AQHI_pm25_ratio <dbl>, AQHI_o3_ratio <dbl>, AQHI_no2_ratio <dbl>,
#> #   colour <chr>, risk <fct>, high_risk_pop_message <chr>,
#> #   general_pop_message <chr>

# Don't allow AQHI+ override (not recommended)
obs$date_utc |>
  AQHI(
    pm25_1hr_ugm3 = obs$pm25_1hr,
    o3_1hr_ppb = obs$o3_1hr,
    no2_1hr_ppb = obs$no2_1hr,
    allow_aqhi_plus_override = FALSE
  )
#> # A tibble: 8,571 × 18
#>    date                pm25_1hr_ugm3 o3_1hr_ppb no2_1hr_ppb pm25_3hr_ugm3
#>    <dttm>                      <dbl>      <dbl>       <dbl>         <dbl>
#>  1 2018-01-01 09:00:00           9.2        0.7        18.1          NA  
#>  2 2018-01-01 10:00:00          12.1        0.3        17.5          NA  
#>  3 2018-01-01 11:00:00          10.7        0.2        17.8          10.7
#>  4 2018-01-01 12:00:00           9.3        0.2        18.1          10.7
#>  5 2018-01-01 13:00:00           8          1.1        16.6           9.3
#>  6 2018-01-01 14:00:00           6.6        1.4        15.6           8  
#>  7 2018-01-01 15:00:00           6          1.9        13.8           6.9
#>  8 2018-01-01 16:00:00           6.1        0.3        16.9           6.2
#>  9 2018-01-01 17:00:00           7.1        1          18.1           6.4
#> 10 2018-01-01 18:00:00           7.9        2.5        16.9           7  
#> # ℹ 8,561 more rows
#> # ℹ 13 more variables: o3_3hr_ppb <dbl>, no2_3hr_ppb <dbl>, level <fct>,
#> #   AQHI <fct>, AQHI_plus <fct>, AQHI_plus_exceeds_AQHI <lgl>,
#> #   AQHI_pm25_ratio <dbl>, AQHI_o3_ratio <dbl>, AQHI_no2_ratio <dbl>,
#> #   colour <chr>, risk <fct>, high_risk_pop_message <chr>,
#> #   general_pop_message <chr>
…
