Calculate the Canadian AQHI+ from hourly PM2.5 concentrations — AQHI_plus • aqhi
…
    References

    Yao et al (2019): doi:10.17269/s41997-019-00237-w

Environment and Climate Change Canada: https://www.canada.ca/en/environment-climate-change/services/air-quality-health-index/about.html

    Examples

# Hourly pm2.5 concentrations
pm25 <- example_obs$pm25_1hr[example_obs$site_id == 1]
# Calculate the detailed AQHI+ (tibble with risk levels etc)
AQHI_plus(pm25)
#> # A tibble: 8,571 × 6
#>    pm25_1hr_ugm3 level colour  risk  high_risk_pop_message   general_pop_message
#>            <dbl> <fct> <chr>   <fct> <chr>                   <chr>              
#>  1           9.2 1     #21C6F5 Low   Enjoy your usual activ… Ideal air quality …
#>  2          12.1 2     #189ACA Low   Enjoy your usual activ… Ideal air quality …
#>  3          10.7 2     #189ACA Low   Enjoy your usual activ… Ideal air quality …
#>  4           9.3 1     #21C6F5 Low   Enjoy your usual activ… Ideal air quality …
#>  5           8   1     #21C6F5 Low   Enjoy your usual activ… Ideal air quality …
#>  6           6.6 1     #21C6F5 Low   Enjoy your usual activ… Ideal air quality …
#>  7           6   1     #21C6F5 Low   Enjoy your usual activ… Ideal air quality …
#>  8           6.1 1     #21C6F5 Low   Enjoy your usual activ… Ideal air quality …
#>  9           7.1 1     #21C6F5 Low   Enjoy your usual activ… Ideal air quality …
#> 10           7.9 1     #21C6F5 Low   Enjoy your usual activ… Ideal air quality …
#> # ℹ 8,561 more rows
…
