Get health messages for AQHI+ risk categories — get_health_messages • aqhi
…
# Get health messages for some observations
hourly_pm25_ugm3 <- sample(1:100, 50, replace = TRUE)
risk_categories <- hourly_pm25_ugm3 |>
  AQHI_plus(detailed = FALSE) |>
  get_risk_category()
risk_categories |> get_health_messages()
#> # A tibble: 50 × 3
#>    risk_category high_risk_pop_message                       general_pop_message
#>    <chr>         <chr>                                       <chr>              
#>  1 High          Reduce or reschedule activities outdoors.   Consider reducing …
#>  2 High          Reduce or reschedule activities outdoors.   Consider reducing …
#>  3 High          Reduce or reschedule activities outdoors.   Consider reducing …
#>  4 Low           Enjoy your usual activities.                Ideal air quality …
#>  5 Moderate      Consider reducing or rescheduling activiti… No need to modify …
#>  6 High          Reduce or reschedule activities outdoors.   Consider reducing …
#>  7 High          Reduce or reschedule activities outdoors.   Consider reducing …
#>  8 Moderate      Consider reducing or rescheduling activiti… No need to modify …
#>  9 Low           Enjoy your usual activities.                Ideal air quality …
#> 10 High          Reduce or reschedule activities outdoors.   Consider reducing …
#> # ℹ 40 more rows
…
